…
## Cognitive outcomes

## Screen missing values

    ## # A tibble: 193 × 1
    ## # Groups:   participants [68]
    ##    participants
    ##    <chr>       
    ##  1 2           
    ##  2 2           
    ##  3 4           
    ##  4 4           
    ##  5 5           
    ##  6 5           
    ##  7 FG901       
    ##  8 FG902       
    ##  9 FG903       
    ## 10 FG904       
    ## # … with 183 more rows
    ## # A tibble: 43 × 1
    ## # Groups:   participants [11]
    ##    participants
    ##    <chr>       
    ##  1 2           
    ##  2 2           
    ##  3 5           
    ##  4 5           
    ##  5 PID024      
    ##  6 PID024      
    ##  7 PRR001      
    ##  8 PRR001      
    ##  9 PRR001      
    ## 10 PRR001      
    ## # … with 33 more rows
    ## # A tibble: 87 × 1
    ## # Groups:   participants [48]
    ##    participants
    ##    <chr>       
    ##  1 2           
    ##  2 2           
    ##  3 4           
    ##  4 4           
    ##  5 5           
    ##  6 5           
    ##  7 FG901       
    ##  8 FG902       
    ##  9 FG903       
    ## 10 FG904       
    ## # … with 77 more rows
